{
  "Scooby Doo": [
    {
      "id": 23,
      "Name": "Daphny",
      "Company": "Scooby Doo"
    },
    {
      "id": 13,
      "Name": "Fred",
      "Company": "Scooby Doo"
    },
    {
      "id": 89,
      "Name": "Welma",
      "Company": "Scooby Doo"
    }
  ],
  "Powerpuff Brigade": [
    {
      "id": 73,
      "Name": "Buttercup",
      "Company": "Powerpuff Brigade"
    },
    {
      "id": 93,
      "Name": "Blossom",
      "Company": "Powerpuff Brigade"
    },
    {
      "id": 94,
      "Name": "Bubbles",
      "Company": "Powerpuff Brigade"
    }
  ],
  "X-Men": [
    {
      "id": 92,
      "Name": "Charles Xavier",
      "Company": "X-Men"
    },
    {
      "id": 2,
      "Name": "Xyclops",
      "Company": "X-Men"
    }
  ]
}