[
  {
    "id": 73,
    "Name": "Buttercup",
    "Company": "Powerpuff Brigade"
  },
  {
    "id": 93,
    "Name": "Blossom",
    "Company": "Powerpuff Brigade"
  },
  {
    "id": 94,
    "Name": "Bubbles",
    "Company": "Powerpuff Brigade"
  }
]